module gitlab.com/Depili/ubercorn

go 1.15

require (
	periph.io/x/conn/v3 v3.6.7
	periph.io/x/host v0.0.1 // indirect
	periph.io/x/host/v3 v3.6.7
	periph.io/x/periph v3.6.7+incompatible // indirect
)
